c:\users\ciber\src\latino\visualstudio\src\liblatino_static.dir\debug\liblatino_static.pdb
c:\users\ciber\src\latino\visualstudio\src\liblatino_static.dir\debug\latsyslib.obj
c:\users\ciber\src\latino\visualstudio\src\liblatino_static.dir\debug\latmathlib.obj
c:\users\ciber\src\latino\visualstudio\src\liblatino_static.dir\debug\latfilelib.obj
c:\users\ciber\src\latino\visualstudio\src\liblatino_static.dir\debug\latdiclib.obj
c:\users\ciber\src\latino\visualstudio\src\liblatino_static.dir\debug\latlistlib.obj
c:\users\ciber\src\latino\visualstudio\src\liblatino_static.dir\debug\latstrlib.obj
c:\users\ciber\src\latino\visualstudio\src\liblatino_static.dir\debug\latbaselib.obj
c:\users\ciber\src\latino\visualstudio\src\liblatino_static.dir\debug\latgc.obj
c:\users\ciber\src\latino\visualstudio\src\liblatino_static.dir\debug\latrepl.obj
c:\users\ciber\src\latino\visualstudio\src\liblatino_static.dir\debug\latpaqlib.obj
c:\users\ciber\src\latino\visualstudio\src\liblatino_static.dir\debug\latobj.obj
c:\users\ciber\src\latino\visualstudio\src\liblatino_static.dir\debug\latmv.obj
c:\users\ciber\src\latino\visualstudio\src\liblatino_static.dir\debug\latlist.obj
c:\users\ciber\src\latino\visualstudio\src\liblatino_static.dir\debug\latdo.obj
c:\users\ciber\src\latino\visualstudio\src\liblatino_static.dir\debug\latdic.obj
c:\users\ciber\src\latino\visualstudio\src\liblatino_static.dir\debug\latmem.obj
c:\users\ciber\src\latino\visualstudio\src\liblatino_static.dir\debug\latast.obj
c:\users\ciber\src\latino\visualstudio\src\liblatino_static.dir\debug\latparse.obj
c:\users\ciber\src\latino\visualstudio\src\liblatino_static.dir\debug\latlex.obj
c:\users\ciber\src\latino\visualstudio\src\liblatino_static.dir\debug\latino.obj
c:\users\ciber\src\latino\visualstudio\src\liblatino_static.dir\debug\linenoise.obj
c:\users\ciber\src\latino\visualstudio\src\liblatino_static.dir\debug\utf8.obj
c:\users\ciber\src\latino\visualstudio\src\liblatino_static.dir\debug\latdevlib.obj
c:\users\ciber\src\latino\visualstudio\src\cmakefiles\generate.stamp
c:\users\ciber\src\latino\visualstudio\src\debug\liblatino_static.lib
c:\users\ciber\src\latino\visualstudio\src\debug\liblatino_static.pdb
c:\users\ciber\src\latino\visualstudio\src\liblatino_static.dir\debug\liblatino_static.tlog\cl.command.1.tlog
c:\users\ciber\src\latino\visualstudio\src\liblatino_static.dir\debug\liblatino_static.tlog\cl.read.1.tlog
c:\users\ciber\src\latino\visualstudio\src\liblatino_static.dir\debug\liblatino_static.tlog\cl.write.1.tlog
c:\users\ciber\src\latino\visualstudio\src\liblatino_static.dir\debug\liblatino_static.tlog\custombuild.command.1.tlog
c:\users\ciber\src\latino\visualstudio\src\liblatino_static.dir\debug\liblatino_static.tlog\custombuild.read.1.tlog
c:\users\ciber\src\latino\visualstudio\src\liblatino_static.dir\debug\liblatino_static.tlog\custombuild.write.1.tlog
c:\users\ciber\src\latino\visualstudio\src\liblatino_static.dir\debug\liblatino_static.tlog\lib-link.read.1.tlog
c:\users\ciber\src\latino\visualstudio\src\liblatino_static.dir\debug\liblatino_static.tlog\lib-link.write.1.tlog
c:\users\ciber\src\latino\visualstudio\src\liblatino_static.dir\debug\liblatino_static.tlog\lib.command.1.tlog
